[
  {
    "id": 0,
    "title": "Swift0",
    "description": "0:iOS programming language"
  },
  {
    "id": 1,
    "title": "Swift1",
    "description": "1:iOS programming language"
  },
  {
    "id": 2,
    "title": "Swift2",
    "description": "2:SOQL defines several escape sequences that are valid in"
  },
  {
    "id": 3,
    "title": "Swif3",
    "description": "3:iOS programming language"
  },
  {
    "id": 4,
    "title": "Swift4",
    "description": "iOS programming language"
  },
  {
    "id": 5,
    "title": "Swift5",
    "description": "iOS programming language"
  },
  {
    "id": 6,
    "title": "Swift6",
    "description": "iOS programming language"
  },
  {
    "id": 7,
    "title": "Swift7",
    "description": "iOS programming language"
  },
  {
    "id": 8,
    "title": "Swift8",
    "description": "iOS programming language"
  },
  {
    "id": 9,
    "title": "Swift9",
    "description": "iOS programming language"
  }
]
